%YAML 1.1
%TAG !u! tag:unity3d.com,2011:
--- !u!114 &11400000
MonoBehaviour:
  m_ObjectHideFlags: 0
  m_CorrespondingSourceObject: {fileID: 0}
  m_PrefabInstance: {fileID: 0}
  m_PrefabAsset: {fileID: 0}
  m_GameObject: {fileID: 0}
  m_Enabled: 1
  m_EditorHideFlags: 0
  m_Script: {fileID: 11500000, guid: 80c578548eadb634eb7e365df1a29735, type: 3}
  m_Name: Wave 2
  m_EditorClassIdentifier: 
  enemyPrefab: {fileID: 8423435814488210141, guid: 20312c3cc414ea24fa1fbc6bdfd7cbe2,
    type: 3}
  pathPrefab: {fileID: 5045739324598318888, guid: d30901d03c9d39e4fbec086331e472ec,
    type: 3}
  enemySpawnRate: 1.5
  spawnRandomFactor: 0.2
  enemyCount: 7
  enemySpeed: 1
